<?xml version="1.0" encoding="utf-8"?>
<!-- Generator: Adobe Illustrator 17.0.0, SVG Export Plug-In . SVG Version: 6.00 Build 0)  -->
<!DOCTYPE svg PUBLIC "-//W3C//DTD SVG 1.1//EN" "http://www.w3.org/Graphics/SVG/1.1/DTD/svg11.dtd">
<svg version="1.1" id="Layer_1" xmlns="http://www.w3.org/2000/svg" xmlns:xlink="http://www.w3.org/1999/xlink" x="0px" y="0px"
	 width="48px" height="48px" viewBox="0 0 48 48" enable-background="new 0 0 48 48" xml:space="preserve">
<g>
	<path d="M0,17.329v20.935c0,3.289,2.693,5.981,5.981,5.981V11.347C2.693,11.347,0,14.04,0,17.329z"/>
	<path d="M41.87,11.347v32.898c3.292,0,5.981-2.693,5.981-5.981V17.329C47.851,14.04,45.162,11.347,41.87,11.347z"/>
	<g>
		<path d="M18.708,34.58c-0.097,0.057-0.185,0.13-0.271,0.204c-0.316,0.27-0.629,0.543-0.942,0.816
			c-0.375,0.327-0.75,0.654-1.145,0.998c0.671,0.643,1.429,1.071,2.335,1.292c0.113-0.707,0.224-1.383,0.329-2.06
			c0.052-0.335,0.112-0.671,0.131-1.008C19.162,34.536,18.956,34.432,18.708,34.58z"/>
		<path d="M28.669,34.546c-0.214,0.116-0.152,0.342-0.126,0.533c0.064,0.455,0.139,0.909,0.212,1.363
			c0.076,0.475,0.154,0.949,0.235,1.448c0.902-0.216,1.658-0.637,2.333-1.289c-0.734-0.64-1.443-1.261-2.157-1.877
			C29.027,34.604,28.874,34.434,28.669,34.546z"/>
		<path d="M32.898,11.347V5.366c0-1.641-1.343-2.991-2.991-2.991H17.944c-1.641,0-2.991,1.349-2.991,2.991v5.981H8.972v32.898
			h29.907V11.347H32.898z M17.944,5.366h11.963v5.981H17.944V5.366z M20.566,36.574c-0.195,1.481-0.407,2.959-0.614,4.438
			c-0.06,0.424-0.126,0.848-0.193,1.301c-0.574-0.183-1.13-0.361-1.696-0.541c0.119-0.747,0.236-1.475,0.35-2.185
			c-0.591-0.268-1.19-0.496-1.746-0.803c-0.552-0.305-1.059-0.69-1.612-1.057c-0.531,0.46-1.093,0.948-1.666,1.445
			c-0.455-0.387-0.897-0.762-1.353-1.15c0.026-0.03,0.042-0.052,0.062-0.069c1.803-1.494,3.605-2.989,5.411-4.479
			c0.344-0.284,0.706-0.546,1.167-0.615c1.048-0.157,2.098,0.7,2.082,1.757C20.748,35.27,20.652,35.924,20.566,36.574z
			 M22.998,42.561c0-2.928,0-5.856,0-8.804c0.585,0,1.153,0,1.755,0c0,0.093,0,0.18,0,0.267c0,2.748,0,5.495,0.001,8.243
			c0,0.098,0.008,0.195,0.013,0.293C24.177,42.561,23.588,42.561,22.998,42.561z M25.652,30.965
			c-0.405-0.055-0.76-0.022-1.052,0.307c-0.214,0.242-0.528,0.268-0.818,0.255c-0.662-0.03-1.323-0.095-1.984-0.152
			c-0.165-0.014-0.331-0.037-0.489-0.081c-0.108-0.03-0.204-0.105-0.305-0.16c-0.004-0.029-0.006-0.057-0.008-0.085
			c0.129-0.059,0.253-0.143,0.388-0.172c0.494-0.104,0.992-0.189,1.488-0.282c0.345-0.065,0.628-0.233,0.874-0.486
			c0.218-0.225,0.462-0.426,0.699-0.633c0.147-0.129,0.335-0.234,0.264-0.476c-0.063-0.214-0.255-0.335-0.533-0.318
			c-0.221,0.014-0.364-0.08-0.396-0.283c-0.104-0.648-0.529-1.059-1-1.455c-0.259-0.217-0.499-0.465-0.713-0.726
			c-0.434-0.528-0.961-0.857-1.657-0.896c-0.126-0.007-0.249-0.07-0.373-0.107c-0.005-0.03-0.01-0.059-0.014-0.089
			c0.125-0.067,0.243-0.165,0.377-0.197c0.74-0.175,1.385-0.548,2.016-0.949c0.241-0.153,0.465-0.334,0.696-0.503
			c0.254-0.186,0.523-0.246,0.842-0.105c-0.286,0.466-0.406,1.006-0.936,1.3c-0.449,0.249-0.56,0.648-0.32,1.106
			c0.174,0.332,0.425,0.644,0.702,0.898c0.354,0.324,0.759,0.598,1.162,0.862c0.553,0.362,0.922,0.84,1.152,1.463
			c0.247,0.671,0.687,1.149,1.478,1.162c0.225,0.004,0.457,0.019,0.672,0.079c0.168,0.046,0.314,0.17,0.47,0.259
			c-0.008,0.032-0.017,0.064-0.025,0.096c-0.179,0.031-0.36,0.053-0.536,0.095c-0.41,0.097-0.812,0.234-1.227,0.297
			C26.255,31.033,25.946,31.005,25.652,30.965z M34.4,39.095c-0.102,0.089-0.165,0.053-0.249-0.021
			c-0.457-0.406-0.918-0.809-1.378-1.213c-0.061-0.054-0.125-0.105-0.197-0.164c-0.083,0.069-0.159,0.131-0.234,0.193
			c-0.859,0.711-1.822,1.234-2.882,1.578c-0.155,0.05-0.21,0.103-0.178,0.283c0.118,0.66,0.213,1.325,0.321,2.02
			c-0.552,0.177-1.108,0.355-1.697,0.544c-0.065-0.443-0.129-0.864-0.187-1.286c-0.189-1.367-0.381-2.735-0.563-4.103
			c-0.092-0.688-0.181-1.377-0.243-2.068c-0.123-1.363,0.966-1.95,1.8-2.021c0.457-0.039,0.854,0.169,1.206,0.445
			c0.564,0.443,1.126,0.89,1.677,1.349c1.289,1.073,2.57,2.155,3.855,3.233c0.058,0.048,0.112,0.1,0.19,0.17
			C35.214,38.398,34.803,38.743,34.4,39.095z M34.654,35.304c-0.035,0.048-0.077,0.092-0.131,0.155
			c-0.114-0.092-0.223-0.179-0.347-0.278c1.007-1.374,1.721-2.865,2.131-4.569c-0.248,0.153-0.443,0.285-0.649,0.398
			c-0.177,0.098-0.36,0.189-0.55,0.256c-0.151,0.054-0.235-0.016-0.199-0.187c0.017-0.081,0.048-0.162,0.048-0.243
			c0-0.084-0.002-0.211-0.052-0.243c-0.076-0.048-0.205-0.062-0.29-0.032c-0.116,0.041-0.22,0.13-0.315,0.214
			c-0.13,0.115-0.245,0.246-0.369,0.368c-0.285,0.28-0.625,0.46-1.027,0.47c-0.579,0.014-1.163-0.025-1.705,0.26
			c-0.015-0.016-0.03-0.031-0.045-0.047c0.042-0.114,0.065-0.241,0.13-0.34c0.086-0.131,0.19-0.26,0.312-0.356
			c0.628-0.491,0.686-1.121,0.494-1.835c-0.125-0.466-0.432-0.713-0.876-0.81c-0.103-0.022-0.247,0.003-0.327,0.065
			c-0.045,0.035-0.017,0.195,0.012,0.289c0.049,0.162,0.123,0.315,0.212,0.536c-0.151-0.034-0.238-0.04-0.313-0.073
			c-0.225-0.1-0.443-0.165-0.7-0.107c-0.105,0.024-0.258-0.04-0.353-0.113c-0.556-0.424-1.056-0.912-1.415-1.513
			c-0.141-0.236-0.159-0.545-0.247-0.816c-0.094-0.292-0.172-0.596-0.314-0.863c-0.247-0.463-0.488-0.919-0.531-1.454
			c-0.029-0.366-0.214-0.654-0.47-0.904c-0.227-0.222-0.457-0.441-0.678-0.668c-0.08-0.082-0.137-0.186-0.223-0.304
			c0.653-0.168,1.139,0.15,1.682,0.456c-0.105-0.346-0.26-0.559-0.501-0.703c-0.324-0.193-0.656-0.373-0.98-0.567
			c-0.256-0.153-0.412-0.365-0.548-0.652c-0.153-0.322-0.471-0.574-0.745-0.825c-0.054-0.05-0.253,0.016-0.357,0.077
			c-0.09,0.052-0.156,0.165-0.208,0.264c-0.278,0.526-0.709,0.887-1.208,1.193c-0.392,0.24-0.783,0.495-1.124,0.8
			c-0.304,0.272-0.539,0.623-0.805,0.937c-0.067,0.08-0.125,0.179-0.211,0.231c-1.132,0.678-2.011,1.663-3.029,2.479
			c-0.435,0.349-0.883,0.682-1.333,1.013c-0.113,0.083-0.25,0.142-0.384,0.189c-0.589,0.209-1.18,0.413-1.772,0.613
			c-0.124,0.042-0.256,0.059-0.385,0.087c-0.018-0.018-0.036-0.035-0.053-0.053c0.038-0.097,0.058-0.206,0.116-0.288
			c0.192-0.271,0.397-0.533,0.598-0.797c0.132-0.173,0.227-0.352,0.178-0.583c-0.018-0.086-0.007-0.183,0.011-0.27
			c0.044-0.219,0.009-0.375-0.232-0.465c-0.085-0.032-0.153-0.163-0.187-0.262c-0.042-0.126-0.038-0.267-0.059-0.401
			c-0.038-0.24-0.169-0.306-0.385-0.191c-0.073,0.039-0.143,0.086-0.207,0.139c-0.991,0.828-1.792,1.801-2.191,3.047
			c-0.188,0.588-0.293,1.202-0.143,1.87c0.606-0.268,1.218-0.489,1.779-0.801c0.556-0.31,1.111-0.518,1.756-0.494
			c0.631,0.023,1.219-0.151,1.775-0.46c0.305-0.17,0.636-0.292,0.956-0.435c0.017,0.025,0.035,0.049,0.052,0.074
			c-0.084,0.109-0.159,0.225-0.252,0.325c-0.328,0.355-0.664,0.703-0.991,1.059c-0.091,0.099-0.173,0.211-0.242,0.327
			c-0.145,0.244-0.06,0.394,0.23,0.388c0.218-0.004,0.444-0.01,0.652-0.068c0.427-0.12,0.702,0.106,0.982,0.354
			c-0.013,0.026-0.019,0.049-0.026,0.049c-0.929,0.03-1.787,0.364-2.629,0.697c-0.78,0.308-1.541,0.33-2.327,0.144
			c-0.512-0.121-1.015-0.28-1.567-0.434c0.389,1.657,1.094,3.13,2.08,4.495c-0.114,0.096-0.216,0.183-0.34,0.287
			c-0.055-0.066-0.108-0.125-0.155-0.188c-1.444-1.965-2.314-4.154-2.568-6.584c-0.027-0.254-0.059-0.508-0.089-0.761
			c0-0.423,0-0.846,0-1.27c0.015-0.095,0.035-0.19,0.046-0.286c0.052-0.457,0.077-0.919,0.158-1.37
			c0.577-3.228,2.113-5.915,4.621-8.029c1.975-1.665,4.255-2.667,6.819-3.01c0.395-0.053,0.793-0.091,1.189-0.136
			c0.41-0.003,0.818-0.003,1.226-0.003c0.397,0.045,0.794,0.083,1.19,0.136c2.566,0.343,4.847,1.345,6.823,3.012
			c2.579,2.177,4.162,4.943,4.656,8.281C37.759,28.906,36.882,32.283,34.654,35.304z"/>
		<path d="M21.543,15.478c-4.941,0.944-8.726,4.491-9.948,9.284c-0.177,0.69-0.263,1.403-0.39,2.106
			c0.032,0.011,0.063,0.023,0.095,0.034c0.064-0.061,0.128-0.121,0.191-0.182c0.662-0.642,1.319-1.286,2.103-1.787
			c0.49-0.313,0.558-0.33,1.027,0.024c0.03,0.023,0.057,0.05,0.089,0.071c0.605,0.405,1.165,0.888,1.917,1.032
			c0.187,0.036,0.316,0.029,0.471-0.088c1.064-0.805,2.043-1.728,3.25-2.336c0.083-0.042,0.162-0.119,0.211-0.199
			c0.26-0.422,0.618-0.744,1.031-1.003c0.383-0.241,0.787-0.449,1.17-0.69c0.33-0.209,0.675-0.412,0.955-0.679
			c0.247-0.234,0.419-0.549,0.614-0.835c0.089-0.131,0.202-0.197,0.344-0.139c0.311,0.128,0.625,0.255,0.918,0.419
			c0.42,0.235,0.805,0.54,1.237,0.748c0.604,0.29,1.235,0.524,1.86,0.769c0.745,0.293,1.312,0.765,1.606,1.527
			c0.143,0.371,0.385,0.674,0.708,0.893c0.468,0.316,0.943,0.626,1.438,0.897c0.653,0.359,1.273,0.75,1.788,1.298
			c0.159,0.169,0.346,0.319,0.542,0.443c0.507,0.318,1.276,0.224,1.695-0.202c0.068-0.069,0.115-0.197,0.108-0.293
			c-0.091-1.136-0.357-2.232-0.771-3.293C33.607,17.663,27.643,14.312,21.543,15.478z"/>
	</g>
</g>
</svg>
